{
  "project_info": {
    "project_number": "902025178539",
    "firebase_url": "https://blp-android.firebaseio.com",
    "project_id": "blp-android",
    "storage_bucket": "blp-android.appspot.com"
  },
  "client": [
    {
      "client_info": {
        "mobilesdk_app_id": "1:902025178539:android:e02148528eb8658d",
        "android_client_info": {
          "package_name": "com.example.a290002529.travelsync"
        }
      },
      "oauth_client": [
        {
          "client_id": "902025178539-k759lnn24l9n3emi4u4mq0t891jb2gsn.apps.googleusercontent.com",
          "client_type": 3
        }
      ],
      "api_key": [
        {
          "current_key": "AIzaSyCtXZ8LqcmrFpJfbVXVFqPvKgSG2VaUbVI"
        }
      ],
      "services": {
        "analytics_service": {
          "status": 1
        },
        "appinvite_service": {
          "status": 1,
          "other_platform_oauth_client": []
        },
        "ads_service": {
          "status": 2
        }
      }
    }
  ],
  "configuration_version": "1"
}